
<svg xmlns="http://www.w3.org/2000/svg" version="1.1" xmlns:xlink="http://www.w3.org/1999/xlink" preserveAspectRatio="none" x="0px" y="0px" width="247px" height="94px" viewBox="0 0 247 94">
<defs>
<linearGradient id="Gradient_1" gradientUnits="userSpaceOnUse" x1="-266.9" y1="209.28750000000002" x2="100.4" y2="-303.38750000000005" spreadMethod="pad">
<stop  offset="0%" stop-color="#0C6D7A"/>

<stop  offset="0.7843137254901961%" stop-color="#0C6F7C"/>

<stop  offset="23.92156862745098%" stop-color="#14BCD4"/>

<stop  offset="48.23529411764706%" stop-color="#06DEFC"/>

<stop  offset="54.509803921568626%" stop-color="#04E0FF"/>

<stop  offset="83.13725490196079%" stop-color="#0FBBD4"/>

<stop  offset="100%" stop-color="#0D7684"/>
</linearGradient>

<linearGradient id="Gradient_2" gradientUnits="userSpaceOnUse" x1="-433.1875" y1="-228.8375" x2="43.087500000000006" y2="514.6375" spreadMethod="pad">
<stop  offset="0%" stop-color="#0C6D7A"/>

<stop  offset="0.7843137254901961%" stop-color="#0C6F7C"/>

<stop  offset="23.92156862745098%" stop-color="#14BCD4"/>

<stop  offset="50.98039215686274%" stop-color="#04E0FF"/>

<stop  offset="83.13725490196079%" stop-color="#0FBBD4"/>

<stop  offset="100%" stop-color="#0D7684"/>
</linearGradient>

<linearGradient id="Gradient_3" gradientUnits="userSpaceOnUse" x1="1.6999999999999886" y1="-578.325" x2="329.40000000000003" y2="210.32500000000005" spreadMethod="pad">
<stop  offset="0%" stop-color="#0C6D7A"/>

<stop  offset="0.7843137254901961%" stop-color="#0C6F7C"/>

<stop  offset="23.92156862745098%" stop-color="#14BCD4"/>

<stop  offset="50.98039215686274%" stop-color="#04E0FF"/>

<stop  offset="83.13725490196079%" stop-color="#0FBBD4"/>

<stop  offset="100%" stop-color="#0D7684"/>
</linearGradient>

<filter id="Filter_1" x="-20%" y="-20%" width="140%" height="140%" color-interpolation-filters="sRGB">
<feColorMatrix in="SourceGraphic" type="matrix" values="1 0 0 0 0 0 1 0 0 0 0 0 1 0 0 0 0 0 0.1 0" result="result1"/>
</filter>

<filter id="Filter_2" x="-20%" y="-20%" width="140%" height="140%" color-interpolation-filters="sRGB">
<feColorMatrix in="SourceGraphic" type="matrix" values="1 0 0 0 0 0 1 0 0 0 0 0 1 0 0 0 0 0 0.2 0" result="result1"/>
</filter>

<g id="Mask_anm_Symbol_3_4201_7_MASK_0_FILL">
<path fill="#FFFFFF" stroke="none" d="
M -112.6 -430
L -480 -100 -240 300 270 -340 -112.6 -430 Z"/>
</g>

<g id="anm_Symbol_3_4201_Layer7_0_FILL">
<path fill="url(#Gradient_1)" stroke="none" d="
M 186.25 -324.15
Q 212.2 -320.25 232.6 -307.85 197.65 -330.25 150 -340
L -60 -380
Q -147.15 -392.95 -220 -330 -320.65 -234.65 -381.15 -120 -421.9 -42.8 -370 50
L -275.8 232.9
Q -254.15 267.65 -237.95 288.1 -271.35 241.45 -250 140 -244.2 119.7 -237.45 100 -210.85 22.15 -143.95 -81.1 -108.65 -135.6 -71.2 -178.85 -30.7 -225.65 20 -268.4 34.15 -280.35 49.3 -290 62 -298.05 75.4 -304.5 103.65 -318.05 132.35 -323.05 160.6 -328 186.25 -324.15 Z"/>
</g>

<g id="Mask_anm_Symbol_3_4201_5_MASK_0_FILL">
<path fill="#FFFFFF" stroke="none" d="
M 130 410
L 390 170 -460.7 -117.35 -340 330 130 410 Z"/>
</g>

<g id="anm_Symbol_3_4201_Layer5_0_FILL">
<path fill="url(#Gradient_2)" stroke="none" d="
M 350 200
Q 361.55 190.45 370 179.8 324.5 217.1 210 190
L -237.45 100
Q -244.2 119.7 -250 140 -271.35 241.45 -237.95 288.1 -233 294.35 -227.65 300 -227.55 300.1 -227.4 300.25 -204.05 324.7 -170 340 -125.05 360.1 -65.45 369.65 -20.3 376.9 50 380 91 381.95 119.1 376.1 151.6 369.3 180 350
L 350 200 Z"/>
</g>

<g id="Mask_anm_Symbol_3_4201_3_MASK_0_FILL">
<path fill="#FFFFFF" stroke="none" d="
M 180 260
L 440 230 310 -310 -100 -400 180 260 Z"/>
</g>

<g id="anm_Symbol_3_4201_Layer3_0_FILL">
<path fill="url(#Gradient_3)" stroke="none" d="
M 232.6 -307.85
Q 212.2 -320.25 186.25 -324.15 160.6 -328 132.35 -323.05 103.65 -318.05 75.4 -304.5 62 -298.05 49.3 -290 197.2 -57.1 210 190 324.5 217.1 370 179.8 399.6 142.25 395.8 90 390.25 11.4 356.5 -91.55 326.7 -182.55 290 -250 282.7 -263.4 271.9 -275.1 263.45 -284.3 250 -295.25 241.75 -302 232.6 -307.85 Z"/>
</g>

<g id="anm_Symbol_4_0_Layer0_0_FILL">
<path fill="#000000" stroke="none" d="
M 56.65 114.9
Q 51.25 116.9 47 120.5 42.6 124.25 39.3 129.6 36 134.9 33.35 141.8
L 32.6 118.3 31.6 115.55 28.85 114.8 23.15 114.8 23.15 226.7 33.9 226.7 33.9 154.35 39.4 140.95
Q 42.35 135.1 46.3 131.25 50.4 127.3 55.35 125.35 60.4 123.35 66.85 123.35
L 78.3 124.9
Q 79.8 124.9 80.35 123.15
L 81.25 115.65 75.3 113.5 68.5 112.95
Q 61.9 112.95 56.65 114.9
M 177.9 125.8
Q 171.95 119.5 163.85 116.2 155.7 113.05 146.25 113.05 134.4 113.05 124.95 117.2 115.6 121.4 109.15 128.75 102.65 136.1 99.25 146.2 95.75 156.4 95.75 168.5 95.75 182.75 99.45 193.75 103.1 204.85 109.8 212.55 116.6 220.2 126.05 224.15 135.5 228.15 146.9 228.15
L 159.55 226.9 171.2 223.65 181.05 218.55
Q 185.55 215.7 188.2 212.3
L 185.35 208.7 183.05 207.6 172.7 213.65 162.4 217.8
Q 156.15 219.55 147.8 219.55 138.35 219.55 130.65 216.4 123 213.1 117.6 206.6 112.2 200.1 109.25 190.55 106.4 181 106.4 168.5
L 106.4 166.3 187.75 166.3 190.05 165.4 190.75 162
Q 190.75 150.25 187.35 141.15 183.8 132.05 177.9 125.8
M 171.4 131.25
Q 176 136.2 178.55 143.35 181.05 150.5 181.05 159.5
L 106.95 159.5
Q 107.95 150.7 111 143.55 113.95 136.55 119 131.5 124.05 126.45 130.9 123.7 137.7 120.95 146.35 120.95 154.05 120.95 160.4 123.7 166.8 126.35 171.4 131.25
M 216.65 130.7
L 218.65 133.9 219.95 135.45 221.95 136
Q 223.7 136 226.1 133.7
L 232.6 128.75 242.15 123.8
Q 247.85 121.6 256 121.6 269.05 121.6 275.75 129.95 282.45 138.3 282.45 153.8
L 282.45 165.55
Q 263.45 165.95 249.95 168.7 236.3 171.35 227.75 175.85 219.1 180.35 215 186.4 210.95 192.55 210.95 199.6 210.95 207.25 213.5 212.75 216 218.15 220.3 221.65 224.45 225.15 229.85 226.8 235.2 228.45 240.95 228.45 247.85 228.45 253.55 227.15 259.25 225.8 264.2 223.3
L 273.75 217.25 282.9 209.15 284.55 223.5
Q 285.3 226.7 288.7 226.7
L 293 226.7 293 153.8
Q 293 144.45 290.7 136.85 288.5 129.3 284 124 279.6 118.65 272.8 115.8 266.1 112.95 257.1 112.95 244.8 112.95 235.1 117.45 225.45 121.95 216.65 130.7
M 224.9 188.5
Q 228.5 183.85 236 180.45 243.45 177.05 255 175.1 266.5 173.2 282.45 172.55
L 282.45 201.9 274.55 209.35 265.75 215.4
Q 261.15 217.9 255.65 219.35 250.15 220.75 243.7 220.75
L 235.2 219.45
Q 231.15 218.25 228.1 215.6 225 212.95 223.15 208.9 221.3 204.75 221.3 199.15 221.3 193.2 224.9 188.5
M 340.4 63.05
L 329.65 63.05 329.65 226.7 340.4 226.7 340.4 63.05 Z"/>

<path fill="#10DCF6" stroke="none" d="
M 439.85 114.8
L 429.2 114.8 429.2 226.7 439.85 226.7 439.85 114.8
M 390.05 63.05
L 379.3 63.05 379.3 226.7 390.05 226.7 390.05 63.05
M 443.7 72.4
L 441.5 69.1 438.3 67.05 434.5 66.25 430.75 67.05 427.55 69.1 425.35 72.4 424.6 76.25 425.35 80 427.55 83.05 430.75 85.25 434.5 86 438.3 85.25 441.5 83.05 443.7 80 444.45 76.25 443.7 72.4
M 557.4 115.55
L 555.95 117.55 518.85 205.85 516 215.6 513.25 205.85 476.35 117.55 474.9 115.65 472.4 114.8 463.95 114.8 511.15 226.7 520.6 226.7 567.85 114.8 559.7 114.8 557.4 115.55
M 666.05 125.8
Q 660.1 119.5 652 116.2 643.85 113.05 634.4 113.05 622.55 113.05 613.1 117.2 603.75 121.4 597.3 128.75 590.8 136.1 587.4 146.2 583.9 156.4 583.9 168.5 583.9 182.75 587.6 193.75 591.25 204.85 597.95 212.55 604.75 220.2 614.2 224.15 623.65 228.15 635.05 228.15
L 647.7 226.9 659.35 223.65 669.2 218.55
Q 673.7 215.7 676.35 212.3
L 673.5 208.7 671.2 207.6 660.85 213.65 650.55 217.8
Q 644.3 219.55 635.95 219.55 626.5 219.55 618.8 216.4 611.15 213.1 605.75 206.6 600.35 200.1 597.4 190.55 594.55 181 594.55 168.5
L 594.55 166.3 675.9 166.3 678.2 165.4 678.9 162
Q 678.9 150.25 675.5 141.15 671.95 132.05 666.05 125.8
M 659.55 131.25
Q 664.15 136.2 666.7 143.35 669.2 150.5 669.2 159.5
L 595.1 159.5
Q 596.1 150.7 599.15 143.55 602.1 136.55 607.15 131.5 612.2 126.45 619.05 123.7 625.85 120.95 634.5 120.95 642.2 120.95 648.55 123.7 654.95 126.35 659.55 131.25
M 719.6 127.55
Q 723.1 124.55 728.15 122.8 733.1 121.05 739.25 121.05 745.95 121.05 750.65 122.5
L 758.6 125.65 763.75 128.85 766.9 130.15
Q 768.55 130.15 769.45 128.65
L 771.75 124.9
Q 765.15 118.85 757.25 115.9 749.35 113.05 739.15 113.05 730.55 113.05 723.65 115.45 716.85 118 712 122.15 707.3 126.35 704.65 131.8 702.15 137.3 702.15 143.25 702.15 150.25 704.75 154.9 707.5 159.6 711.9 162.8 716.3 166.1 721.8 168.3
L 744.65 175.75 754.6 180.15
Q 759 182.75 761.65 186.4 764.4 190.15 764.4 195.75 764.4 200.8 762.55 205.4 760.65 209.9 757.05 213.3 753.5 216.7 748.15 218.7 742.65 220.65 735.6 220.65 728.05 220.65 723 218.8
L 714.3 214.95 708.85 211.1
Q 706.75 209.25 705.2 209.25
L 703.25 209.7 702 211.1 699.5 214.85
Q 706.3 221 714.75 224.7 723.3 228.45 735.2 228.45 744.65 228.45 751.9 225.8 759.25 223.1 764.2 218.45 769.25 213.85 771.85 207.6 774.4 201.35 774.4 193.95 774.4 187.3 771.75 182.55 769 177.85 764.7 174.55 760.35 171.25 754.75 169.05
L 731.9 161.45 721.9 157.2
Q 717.6 154.75 714.85 151.25 712.25 147.75 712.25 142.45 712.25 138.2 714.1 134.35 716.1 130.4 719.6 127.55 Z"/>
</g>

<g id="anm__0_Layer0_0_FILL">
<path fill="#333333" stroke="none" d="
M 58.35 60.25
Q 50.1 60.25 45.25 65.8 40.35 71.3 40.35 80.65 40.35 89.35 45 94.55 49.6 99.7 57.5 99.7 66.95 99.7 71.4 93.85 75.9 88 75.9 79.1 75.9 69.8 70.8 65 65.7 60.25 58.35 60.25
M 49.65 70.05
Q 52.3 65.7 58.15 65.7 64.75 65.7 67.45 70.8 69.15 74.05 69.15 79.25 69.15 84.95 66.8 89.65 64.4 94.35 58.1 94.35 52.3 94.35 49.65 90.4 47 86.45 47 80.55 47 74.4 49.65 70.05
M 30.3 61.3
L 19.95 91.5 9.65 61.3 2.35 61.3 16.55 99.5 13.65 106.1 12.2 107.55
Q 11.35 108.1 9.6 108.1
L 8.25 108 5.8 107.45 5.8 113.1 7.6 113.5 9.7 113.6
Q 15.3 113.6 17.6 110.5 19.9 107.35 25.5 93.15
L 37.45 61.3 30.3 61.3
M 114.05 61.3
L 107.6 61.3 107.6 79.55
Q 107.6 84.95 106.35 88.1 103.95 93.9 97.4 93.9 92.8 93.9 91.15 90.55 90.25 88.75 90.25 85.95
L 90.25 61.3 83.65 61.3 83.65 86.5
Q 83.65 91.25 85.2 94.1 88.15 99.4 96.2 99.4 101.4 99.4 105 96.5 106.85 95.05 108.05 92.95
L 108 98.4 114.05 98.4 114.05 61.3
M 233.95 62.35
Q 230.15 60.5 226.1 60.5 218 60.5 213.05 66.05 208.05 71.65 208.05 80.55 208.05 89.65 213 94.7 217.95 99.7 225.05 99.7 228 99.7 230.3 99.15 234.6 98.2 237.5 95.4 239.25 93.85 240.7 91.35 242.1 88.8 242.35 86.75
L 236 86.75
Q 235.35 89.2 233.65 91.15 230.65 94.35 225.65 94.35 220.25 94.35 217.7 90.9 215.15 87.5 214.95 81.85
L 242.9 81.85
Q 242.9 76.25 242.3 73.65 241.65 69.95 239.75 67.15 237.75 64.2 233.95 62.35
M 225.7 65.9
Q 231.8 65.9 234.45 70.4 235.85 72.85 236.25 76.9
L 215.1 76.9
Q 215.3 72.1 218.25 69.05 221.25 65.9 225.7 65.9
M 168.95 71.75
Q 168.95 73.35 168.55 74.15 167.8 75.7 165.55 75.95
L 155.25 77.2
Q 149.85 77.85 146.5 80.7 143.2 83.55 143.2 88.65 143.2 93.4 146.6 96.55 149.95 99.65 155.3 99.65 159.75 99.65 163.45 97.8 167.15 96 169.1 93.5 169.45 95.7 170.2 96.9 171.75 99.2 175.05 99.2
L 177.2 99.1 179.5 98.55 179.5 93.95 178.35 94.15 177.4 94.2
Q 176.05 94.2 175.65 93.6 175.25 93 175.25 92.05
L 175.25 70.65
Q 175.25 65.4 171.05 62.9 166.8 60.4 160.05 60.4 154.25 60.4 149.8 63.1 145.4 65.8 145.2 72.65
L 151.2 72.65
Q 151.6 69.8 152.75 68.3 154.9 65.7 159.95 65.7 164.25 65.7 166.65 67.15 168.95 68.55 168.95 71.75
M 165.75 80.75
Q 167.6 80.3 168.8 79.55
L 168.8 84.55
Q 168.8 90.3 163.4 92.8 160.2 94.35 156.8 94.35 154 94.35 151.95 92.8 149.95 91.25 149.95 88.55 149.95 85 152.95 83.35 154.7 82.4 158.2 81.95
L 165.75 80.75
M 195.8 63.2
Q 192.85 65.85 192.1 67.7
L 192.1 61.3 185.95 61.3 185.95 98.4 192.4 98.4 192.4 77.05
Q 192.4 73.1 195.05 70.1 197.65 67.05 202.5 67.05
L 204.65 67.25 204.65 60.65 203.15 60.5
Q 202.9 60.5 202.55 60.5 198.7 60.5 195.8 63.2
M 272.65 50.95
L 272.65 61.3 267.45 61.3 267.45 66.4 272.65 66.4 272.65 90.95
Q 272.65 94.5 274.3 96.75 275.9 99 280.4 99
L 283.05 98.85 285.35 98.4 285.35 93.45 283.05 93.6
Q 281.3 93.6 280.55 93.2 279.2 92.55 279.2 90.6
L 279.2 66.4 285.35 66.4 285.35 61.3 279.2 61.3 279.2 50.95 272.65 50.95
M 298.25 47.35
L 291.8 47.35 291.8 98.4 298.25 98.4 298.25 78.75
Q 298.25 71.3 301.5 68.65 304.75 66 308.75 66 313.6 66 315.35 69.05 316.45 70.95 316.45 75.05
L 316.45 98.4 323.1 98.4 323.1 74.6
Q 323.1 69.15 321.45 66.05 318.5 60.4 310.15 60.4 305.5 60.4 302.35 62.4 300.55 63.55 298.25 66.35
L 298.25 47.35
M 356.3 62.35
Q 352.5 60.5 348.45 60.5 340.35 60.5 335.4 66.05 330.4 71.65 330.4 80.55 330.4 89.65 335.35 94.7 340.3 99.7 347.4 99.7 350.35 99.7 352.65 99.15 356.95 98.2 359.85 95.4 361.6 93.85 363.05 91.35 364.45 88.8 364.7 86.75
L 358.35 86.75
Q 357.7 89.2 356 91.15 353 94.35 348 94.35 342.6 94.35 340.05 90.9 337.5 87.5 337.3 81.85
L 365.25 81.85
Q 365.25 76.25 364.65 73.65 364 69.95 362.1 67.15 360.1 64.2 356.3 62.35
M 348.05 65.9
Q 354.15 65.9 356.8 70.4 358.2 72.85 358.6 76.9
L 337.45 76.9
Q 337.65 72.1 340.6 69.05 343.6 65.9 348.05 65.9
M 462.1 60.25
Q 453.85 60.25 449 65.8 444.1 71.3 444.1 80.65 444.1 89.35 448.75 94.55 453.35 99.7 461.25 99.7 470.7 99.7 475.15 93.85 479.65 88 479.65 79.1 479.65 69.8 474.55 65 469.45 60.25 462.1 60.25
M 453.4 70.05
Q 456.05 65.7 461.9 65.7 468.5 65.7 471.2 70.8 472.9 74.05 472.9 79.25 472.9 84.95 470.55 89.65 468.15 94.35 461.85 94.35 456.05 94.35 453.4 90.4 450.75 86.45 450.75 80.55 450.75 74.4 453.4 70.05
M 418.85 61.3
L 411.6 61.3 404.15 90.55 396.75 61.3 389.7 61.3 400.75 98.4 407.45 98.4 415.05 69.7 422.85 98.4 429.55 98.4 440.7 61.3 434.25 61.3 426.4 90.35 418.85 61.3
M 506.4 67.25
L 506.4 60.65 504.9 60.5
Q 504.65 60.5 504.3 60.5 500.45 60.5 497.55 63.2 494.6 65.85 493.85 67.7
L 493.85 61.3 487.7 61.3 487.7 98.4 494.15 98.4 494.15 77.05
Q 494.15 73.1 496.8 70.1 499.4 67.05 504.25 67.05
L 506.4 67.25
M 518.6 47.55
L 512.15 47.55 512.15 98.4 518.6 98.4 518.6 47.55
M 559.45 47.35
L 553.25 47.35 553.25 66.1
Q 551.1 63.5 549.35 62.45 546.4 60.65 542 60.65 534.1 60.65 529.8 66.6 525.55 72.55 525.55 80.65 525.55 89.3 530.25 94.5 534.9 99.7 541.3 99.7 545.25 99.7 548.35 98.2 551.4 96.65 553.65 93.25
L 553.65 98.4 559.45 98.4 559.45 47.35
M 535.4 69.7
Q 538.4 66.1 543.25 66.1 547.6 66.1 550.55 69.5 553.5 72.85 553.5 79.85 553.5 86.85 550.65 90.55 547.8 94.3 543.3 94.3 537.55 94.3 535 90.25 532.35 86.25 532.35 80.3 532.35 73.3 535.4 69.7 Z"/>
</g>

<g id="anm_round_9_Layer1_0_FILL">
<path fill="#FFFFFF" stroke="none" d="
M 5.15 2.4
Q 5.15 1.25 4.3 0.45 3.55 -0.35 2.4 -0.35 1.25 -0.35 0.4 0.45 -0.35 1.25 -0.35 2.4 -0.35 3.55 0.4 4.35 1.25 5.15 2.4 5.15 3.55 5.15 4.3 4.35 5.15 3.55 5.15 2.4 Z"/>
</g>

<g id="anm_Tween_1_0_Layer0_0_FILL">
<path fill="#FFFFFF" fill-opacity="0.30196078431372547" stroke="none" d="
M 8.05 -0.25
Q 0.85 -1.05 0.35 -8.8
L 0.05 -20 -0.25 -8
Q -1 -0.85 -8.75 -0.3
L -20 0 -8 0.25
Q -0.85 1.05 -0.3 8.8
L 0 20 0.25 8
Q 1.05 0.85 8.8 0.35
L 20 0.05 8.05 -0.25 Z"/>
</g>

<g id="anm_round_3_Layer1_0_FILL">
<path fill="#FFFFFF" stroke="none" d="
M 5.15 2.4
Q 5.15 1.25 4.3 0.45 3.55 -0.35 2.4 -0.35 1.25 -0.35 0.4 0.45 -0.35 1.25 -0.35 2.4 -0.35 3.55 0.4 4.35 1.25 5.15 2.4 5.15 3.55 5.15 4.3 4.35 5.15 3.55 5.15 2.4 Z"/>
</g>
</defs>

<g transform="matrix( 0.108551025390625, 0.029083251953125, -0.029083251953125, 0.108551025390625, 45.35,46.6) ">
<mask id="Mask_Mask_1">
<g transform="matrix( 1, 0, 0, 1, 0,0) ">
<use xlink:href="#Mask_anm_Symbol_3_4201_7_MASK_0_FILL"/>
</g>
</mask>

<g mask="url(#Mask_Mask_1)">
<g transform="matrix( 1, 0, 0, 1, 0,0) ">
<use xlink:href="#anm_Symbol_3_4201_Layer7_0_FILL"/>
</g>
</g>

<mask id="Mask_Mask_2">
<g transform="matrix( 1, 0, 0, 1, 0,0) ">
<use xlink:href="#Mask_anm_Symbol_3_4201_5_MASK_0_FILL"/>
</g>
</mask>

<g mask="url(#Mask_Mask_2)">
<g transform="matrix( 1, 0, 0, 1, 0,0) ">
<use xlink:href="#anm_Symbol_3_4201_Layer5_0_FILL"/>
</g>
</g>

<mask id="Mask_Mask_3">
<g transform="matrix( 1, 0, 0, 1, 0,0) ">
<use xlink:href="#Mask_anm_Symbol_3_4201_3_MASK_0_FILL"/>
</g>
</mask>

<g mask="url(#Mask_Mask_3)">
<g transform="matrix( 1, 0, 0, 1, 0,0) ">
<use xlink:href="#anm_Symbol_3_4201_Layer3_0_FILL"/>
</g>
</g>
</g>

<g transform="matrix( 0.26593017578125, 0, 0, 0.26593017578125, 38.2,0.1) ">
<g transform="matrix( 1, 0, 0, 1, 0,0) ">
<use xlink:href="#anm_Symbol_4_0_Layer0_0_FILL"/>
</g>
</g>

<g transform="matrix( 0.26593017578125, 0, 0, 0.26593017578125, 97.1,56.05) ">
<g transform="matrix( 1, 0, 0, 1, 0,0) ">
<use xlink:href="#anm__0_Layer0_0_FILL"/>
</g>
</g>

<g transform="matrix( 0.26593017578125, 0, 0, 0.26593017578125, 232.95,34.45) ">
<g transform="matrix( 1, 0, 0, 1, -706.8,-99.05) ">
<g transform="matrix( 1, 0, 0, 1, 0,0) ">
<use filter="url(#Filter_1)" xlink:href="#anm_round_9_Layer1_0_FILL"/>
</g>

<g transform="matrix( 0.3304443359375, -1.73016357421875, 1.73016357421875, 0.3304443359375, 2.45,2.3) ">
<g transform="matrix( 1, 0, 0, 1, 0,0) ">
<use filter="url(#Filter_1)" xlink:href="#anm_Tween_1_0_Layer0_0_FILL"/>
</g>
</g>
</g>
</g>

<g transform="matrix( 0.26593017578125, 0, 0, 0.26593017578125, 232.95,34.45) ">
<g transform="matrix( 1, 0, 0, 1, -814.2,111.75) ">
<g transform="matrix( 1, 0, 0, 1, 0,0) ">
<use filter="url(#Filter_2)" xlink:href="#anm_round_3_Layer1_0_FILL"/>
</g>

<g transform="matrix( 1.5778961181640625, -0.7801513671875, 0.7801513671875, 1.5778961181640625, 2.55,2.3) ">
<g transform="matrix( 1, 0, 0, 1, 0,0) ">
<use filter="url(#Filter_2)" xlink:href="#anm_Tween_1_0_Layer0_0_FILL"/>
</g>
</g>
</g>
</g>
</svg>
